{
    "31":35,
    "1":34,    
    "11":33,
    "21":32,
    "4":31,
    "14":30,
    "24":29,
    "7":28,
    "17":27,
    "27":26,
    "30":25,
    "00":24,
    "32":23,
    "2":22,
    "12":21,
    "22":20,
    "5":19,
    "15":18,
    "25":17,
    "8":16,
    "18":15,
    "28":14,
    "20":13,
    "000":12,
    "33":11,
    "3":10,
    "13":9,
    "23":8,
    "6":7,
    "16":6,
    "26":5,
    "9":4,
    "19":3,
    "29":2,
    "10":1,
    "0":0
}
